Categories:Science & Education
License:MIT
Web Site:http://ultramegasoft.com
Source Code:https://github.com/ultramega/elementary
Issue Tracker:https://github.com/ultramega/elementary/issues
Changelog:https://github.com/ultramega/elementary/blob/HEAD/CHANGELOG.md
Donate:https://www.paypal.com/cgi-bin/webscr?cmd=_s-xclick&hosted_button_id=76UJ7AX8VJT5Q

Auto Name:Elementary

Repo Type:git
Repo:https://github.com/ultramega/elementary.git

Build:0.1.5,6
    commit=eecdec

Build:0.1.6,7
    commit=99b8bf567797e085f6

Build:0.1.7,8
    commit=0.1.7

Build:0.2.0,9
    commit=0.2.0

Build:0.3.0,10
    commit=0.3.0

Build:0.3.1,11
    commit=0.3.1

Build:0.3.2,12
    commit=0.3.2

Build:0.4.0,13
    commit=0.4.0
    subdir=app
    gradle=yes

Build:0.4.1,14
    commit=0.4.1
    subdir=app
    gradle=yes

Build:0.4.2,15
    commit=0.4.2
    subdir=app
    gradle=yes

Build:0.4.3,16
    disable=mistagged
    commit=0.4.3
    subdir=app
    gradle=yes

Build:0.4.4,17
    commit=0.4.4
    subdir=app
    gradle=yes

Build:0.4.5,18
    commit=0.4.5
    subdir=app
    gradle=yes

Build:0.4.6,19
    commit=0.4.6
    subdir=app
    gradle=yes

Build:0.4.7,20
    commit=0.4.7
    subdir=app
    gradle=yes

Build:0.5.0,21
    commit=0.5.0
    subdir=app
    gradle=yes

Build:0.5.1,22
    commit=0.5.1
    subdir=app
    gradle=yes

Build:0.6.0,23
    commit=0.6.0
    subdir=app
    gradle=yes

Build:0.6.1,24
    commit=0.6.1
    subdir=app
    gradle=yes

Build:0.7.0,25
    commit=0.7.0
    subdir=app
    gradle=yes

Build:0.8.0,26
    commit=0.8.0
    subdir=app
    gradle=yes

Build:0.8.1,27
    commit=0.8.1
    subdir=app
    gradle=yes

Build:0.8.2,28
    commit=0.8.2
    subdir=app
    gradle=yes

Build:0.8.3,29
    commit=0.8.3
    subdir=app
    gradle=yes

Build:0.8.4,30
    commit=9d43e5c
    subdir=app
    gradle=yes

Build:0.8.5,31
    commit=0.8.5
    subdir=app
    gradle=yes

Build:0.8.6,32
    commit=0.8.6
    subdir=app
    gradle=yes

Build:0.9.0,33
    commit=0.9.0
    subdir=app
    gradle=yes

Auto Update Mode:Version %v
Update Check Mode:Tags
Current Version:0.9.0
Current Version Code:33
